%YAML 1.1
%TAG !u! tag:unity3d.com,2011:
--- !u!1 &1156287589520152
GameObject:
  m_ObjectHideFlags: 0
  m_CorrespondingSourceObject: {fileID: 0}
  m_PrefabInstance: {fileID: 0}
  m_PrefabAsset: {fileID: 0}
  serializedVersion: 6
  m_Component:
  - component: {fileID: 4226913122682422}
  - component: {fileID: 212970365791898314}
  - component: {fileID: 58665511475134424}
  - component: {fileID: 114667996635612362}
  - component: {fileID: 189441685128457467}
  m_Layer: 0
  m_Name: Circle32
  m_TagString: Wood
  m_Icon: {fileID: 0}
  m_NavMeshLayer: 0
  m_StaticEditorFlags: 0
  m_IsActive: 1
--- !u!4 &4226913122682422
Transform:
  m_ObjectHideFlags: 0
  m_CorrespondingSourceObject: {fileID: 0}
  m_PrefabInstance: {fileID: 0}
  m_PrefabAsset: {fileID: 0}
  m_GameObject: {fileID: 1156287589520152}
  m_LocalRotation: {x: -0, y: -0, z: -0, w: 1}
  m_LocalPosition: {x: 0, y: 0, z: 0}
  m_LocalScale: {x: 1, y: 1, z: 1}
  m_Children: []
  m_Father: {fileID: 0}
  m_RootOrder: 0
  m_LocalEulerAnglesHint: {x: 0, y: 0, z: 0}
--- !u!212 &212970365791898314
SpriteRenderer:
  m_ObjectHideFlags: 0
  m_CorrespondingSourceObject: {fileID: 0}
  m_PrefabInstance: {fileID: 0}
  m_PrefabAsset: {fileID: 0}
  m_GameObject: {fileID: 1156287589520152}
  m_Enabled: 1
  m_CastShadows: 0
  m_ReceiveShadows: 0
  m_DynamicOccludee: 1
  m_MotionVectors: 1
  m_LightProbeUsage: 1
  m_ReflectionProbeUsage: 1
  m_RayTracingMode: 0
  m_RayTraceProcedural: 0
  m_RenderingLayerMask: 1
  m_RendererPriority: 0
  m_Materials:
  - {fileID: 10754, guid: 0000000000000000f000000000000000, type: 0}
  m_StaticBatchInfo:
    firstSubMesh: 0
    subMeshCount: 0
  m_StaticBatchRoot: {fileID: 0}
  m_ProbeAnchor: {fileID: 0}
  m_LightProbeVolumeOverride: {fileID: 0}
  m_ScaleInLightmap: 1
  m_ReceiveGI: 1
  m_PreserveUVs: 0
  m_IgnoreNormalsForChartDetection: 0
  m_ImportantGI: 0
  m_StitchLightmapSeams: 0
  m_SelectedEditorRenderState: 0
  m_MinimumChartSize: 4
  m_AutoUVMaxDistance: 0.5
  m_AutoUVMaxAngle: 89
  m_LightmapParameters: {fileID: 0}
  m_SortingLayerID: -1783213133
  m_SortingLayer: 0
  m_SortingOrder: 5
  m_Sprite: {fileID: 21300000, guid: 3e3c278ca2d931e42a98190c344aa4fc, type: 3}
  m_Color: {r: 1, g: 1, b: 1, a: 1}
  m_FlipX: 0
  m_FlipY: 0
  m_DrawMode: 0
  m_Size: {x: 1, y: 1}
  m_AdaptiveModeThreshold: 0.5
  m_SpriteTileMode: 0
  m_WasSpriteAssigned: 1
  m_MaskInteraction: 0
  m_SpriteSortPoint: 0
--- !u!58 &58665511475134424
CircleCollider2D:
  m_ObjectHideFlags: 0
  m_CorrespondingSourceObject: {fileID: 0}
  m_PrefabInstance: {fileID: 0}
  m_PrefabAsset: {fileID: 0}
  m_GameObject: {fileID: 1156287589520152}
  m_Enabled: 1
  m_Density: 1
  m_Material: {fileID: 0}
  m_IsTrigger: 0
  m_UsedByEffector: 0
  m_UsedByComposite: 0
  m_Offset: {x: 0, y: 0}
  serializedVersion: 2
  m_Radius: 1.62
--- !u!114 &114667996635612362
MonoBehaviour:
  m_ObjectHideFlags: 0
  m_CorrespondingSourceObject: {fileID: 0}
  m_PrefabInstance: {fileID: 0}
  m_PrefabAsset: {fileID: 0}
  m_GameObject: {fileID: 1156287589520152}
  m_Enabled: 1
  m_EditorHideFlags: 0
  m_Script: {fileID: 11500000, guid: acd785a7c6c538f40b03ee80262639b4, type: 3}
  m_Name: 
  m_EditorClassIdentifier: 
  totalKnife: 16
  RandomRotation:
  - time: 1
    z: 180
    curve:
      serializedVersion: 2
      m_Curve:
      - serializedVersion: 3
        time: 0
        value: 0
        inSlope: 0.088029064
        outSlope: 0.088029064
        tangentMode: 0
        weightedMode: 0
        inWeight: 0.33333334
        outWeight: 0.33333334
      - serializedVersion: 3
        time: 0.071428575
        value: 0.006287791
        inSlope: 0.17550462
        outSlope: 0.17550462
        tangentMode: 0
        weightedMode: 0
        inWeight: 0.33333334
        outWeight: 0.33333334
      - serializedVersion: 3
        time: 0.14285715
        value: 0.02507209
        inSlope: 0.34880215
        outSlope: 0.34880215
        tangentMode: 0
        weightedMode: 0
        inWeight: 0.33333334
        outWeight: 0.33333334
      - serializedVersion: 3
        time: 0.21428572
        value: 0.05611667
        inSlope: 0.5177133
        outSlope: 0.5177133
        tangentMode: 0
        weightedMode: 0
        inWeight: 0.33333334
        outWeight: 0.33333334
      - serializedVersion: 3
        time: 0.2857143
        value: 0.09903114
        inSlope: 0.6801139
        outSlope: 0.6801139
        tangentMode: 0
        weightedMode: 0
        inWeight: 0.33333334
        outWeight: 0.33333334
      - serializedVersion: 3
        time: 0.35714287
        value: 0.1532758
        inSlope: 0.8339617
        outSlope: 0.8339617
        tangentMode: 0
        weightedMode: 0
        inWeight: 0.33333334
        outWeight: 0.33333334
      - serializedVersion: 3
        time: 0.42857143
        value: 0.21816853
        inSlope: 0.97732204
        outSlope: 0.97732204
        tangentMode: 0
        weightedMode: 0
        inWeight: 0.33333334
        outWeight: 0.33333334
      - serializedVersion: 3
        time: 0.5
        value: 0.29289323
        inSlope: 1.1083918
        outSlope: 1.1083918
        tangentMode: 0
        weightedMode: 0
        inWeight: 0.33333334
        outWeight: 0.33333334
      - serializedVersion: 3
        time: 0.5714286
        value: 0.37651023
        inSlope: 1.2255228
        outSlope: 1.2255228
        tangentMode: 0
        weightedMode: 0
        inWeight: 0.33333334
        outWeight: 0.33333334
      - serializedVersion: 3
        time: 0.64285713
        value: 0.4679679
        inSlope: 1.3272424
        outSlope: 1.3272424
        tangentMode: 0
        weightedMode: 0
        inWeight: 0.33333334
        outWeight: 0.33333334
      - serializedVersion: 3
        time: 0.71428573
        value: 0.5661163
        inSlope: 1.412271
        outSlope: 1.412271
        tangentMode: 0
        weightedMode: 0
        inWeight: 0.33333334
        outWeight: 0.33333334
      - serializedVersion: 3
        time: 0.78571427
        value: 0.6697209
        inSlope: 1.4795395
        outSlope: 1.4795395
        tangentMode: 0
        weightedMode: 0
        inWeight: 0.33333334
        outWeight: 0.33333334
      - serializedVersion: 3
        time: 0.85714287
        value: 0.77747905
        inSlope: 1.5282022
        outSlope: 1.5282022
        tangentMode: 0
        weightedMode: 0
        inWeight: 0.33333334
        outWeight: 0.33333334
      - serializedVersion: 3
        time: 0.9285714
        value: 0.8880355
        inSlope: 1.5576468
        outSlope: 1.5576468
        tangentMode: 0
        weightedMode: 0
        inWeight: 0.33333334
        outWeight: 0.33333334
      - serializedVersion: 3
        time: 1
        value: 1
        inSlope: 1.5675027
        outSlope: 1.5675027
        tangentMode: 0
        weightedMode: 0
        inWeight: 0.33333334
        outWeight: 0.33333334
      m_PreInfinity: 2
      m_PostInfinity: 2
      m_RotationOrder: 0
  - time: 1
    z: 180
    curve:
      serializedVersion: 2
      m_Curve:
      - serializedVersion: 3
        time: 0
        value: 0
        inSlope: 1.5675026
        outSlope: 1.5675026
        tangentMode: 0
        weightedMode: 0
        inWeight: 0.33333334
        outWeight: 0.33333334
      - serializedVersion: 3
        time: 0.071428575
        value: 0.11196448
        inSlope: 1.5576465
        outSlope: 1.5576465
        tangentMode: 0
        weightedMode: 0
        inWeight: 0.33333334
        outWeight: 0.33333334
      - serializedVersion: 3
        time: 0.14285715
        value: 0.22252095
        inSlope: 1.528202
        outSlope: 1.528202
        tangentMode: 0
        weightedMode: 0
        inWeight: 0.33333334
        outWeight: 0.33333334
      - serializedVersion: 3
        time: 0.21428572
        value: 0.33027905
        inSlope: 1.4795396
        outSlope: 1.4795396
        tangentMode: 0
        weightedMode: 0
        inWeight: 0.33333334
        outWeight: 0.33333334
      - serializedVersion: 3
        time: 0.2857143
        value: 0.43388376
        inSlope: 1.412271
        outSlope: 1.412271
        tangentMode: 0
        weightedMode: 0
        inWeight: 0.33333334
        outWeight: 0.33333334
      - serializedVersion: 3
        time: 0.35714287
        value: 0.5320321
        inSlope: 1.3272424
        outSlope: 1.3272424
        tangentMode: 0
        weightedMode: 0
        inWeight: 0.33333334
        outWeight: 0.33333334
      - serializedVersion: 3
        time: 0.42857143
        value: 0.6234898
        inSlope: 1.225523
        outSlope: 1.225523
        tangentMode: 0
        weightedMode: 0
        inWeight: 0.33333334
        outWeight: 0.33333334
      - serializedVersion: 3
        time: 0.5
        value: 0.70710677
        inSlope: 1.1083918
        outSlope: 1.1083918
        tangentMode: 0
        weightedMode: 0
        inWeight: 0.33333334
        outWeight: 0.33333334
      - serializedVersion: 3
        time: 0.5714286
        value: 0.7818315
        inSlope: 0.9773221
        outSlope: 0.9773221
        tangentMode: 0
        weightedMode: 0
        inWeight: 0.33333334
        outWeight: 0.33333334
      - serializedVersion: 3
        time: 0.64285713
        value: 0.8467242
        inSlope: 0.8339619
        outSlope: 0.8339619
        tangentMode: 0
        weightedMode: 0
        inWeight: 0.33333334
        outWeight: 0.33333334
      - serializedVersion: 3
        time: 0.71428573
        value: 0.9009689
        inSlope: 0.6801136
        outSlope: 0.6801136
        tangentMode: 0
        weightedMode: 0
        inWeight: 0.33333334
        outWeight: 0.33333334
      - serializedVersion: 3
        time: 0.78571427
        value: 0.9438833
        inSlope: 0.517713
        outSlope: 0.517713
        tangentMode: 0
        weightedMode: 0
        inWeight: 0.33333334
        outWeight: 0.33333334
      - serializedVersion: 3
        time: 0.85714287
        value: 0.9749279
        inSlope: 0.3488022
        outSlope: 0.3488022
        tangentMode: 0
        weightedMode: 0
        inWeight: 0.33333334
        outWeight: 0.33333334
      - serializedVersion: 3
        time: 0.9285714
        value: 0.9937122
        inSlope: 0.17550473
        outSlope: 0.17550473
        tangentMode: 0
        weightedMode: 0
        inWeight: 0.33333334
        outWeight: 0.33333334
      - serializedVersion: 3
        time: 1
        value: 1
        inSlope: 0.088029355
        outSlope: 0.088029355
        tangentMode: 0
        weightedMode: 0
        inWeight: 0.33333334
        outWeight: 0.33333334
      m_PreInfinity: 2
      m_PostInfinity: 2
      m_RotationOrder: 0
  RandomLevels:
  - applePosibility: 0.5
    AppleAngles:
    - 90
    KnifeAngles:
    - 0
    - 180
  - applePosibility: 0.5
    AppleAngles:
    - 90
    KnifeAngles:
    - 0
    - 180
  - applePosibility: 0.5
    AppleAngles:
    - 45
    - 135
    KnifeAngles:
    - 0
    - 90
    - 180
  - applePosibility: 0.5
    AppleAngles:
    - 45
    KnifeAngles:
    - 0
    - 90
  - applePosibility: 0.5
    AppleAngles:
    - 45
    KnifeAngles:
    - 0
    - 90
  - applePosibility: 0.452
    AppleAngles:
    - 90
    KnifeAngles:
    - 0
    - 225
  - applePosibility: 0.452
    AppleAngles:
    - 0
    - 180
    KnifeAngles:
    - 90
  - applePosibility: 0.452
    AppleAngles:
    - 90
    - 180
    - 270
    KnifeAngles:
    - 0
    - 135
    - 225
  - applePosibility: 0.452
    AppleAngles:
    - 0
    - 90
    - 180
    - 270
    KnifeAngles:
    - 45
  - applePosibility: 0.452
    AppleAngles:
    - 45
    - 135
    - 225
    - 270
    KnifeAngles:
    - 0
    - 180
  - applePosibility: 0.935
    AppleAngles:
    - 0
    - 90
    - 180
    - 270
    KnifeAngles: []
  - applePosibility: 0.452
    AppleAngles:
    - 45
    - 135
    - 225
    - 315
    KnifeAngles:
    - 0
    - 90
    - 180
    - 270
  - applePosibility: 0.452
    AppleAngles:
    - 30
    - 60
    - 90
    - 150
    - 180
    - 210
    - 270
    - 300
    - 330
    KnifeAngles:
    - 0
    - 120
    - 240
  - applePosibility: 0.452
    AppleAngles:
    - 270
    KnifeAngles:
    - 0
    - 180
    - 45
    - 225
  hitParticle: {fileID: 198314479377665406, guid: 30992170b829fed449253b05b1cddc5a, type: 3}
  splashParticle: {fileID: 198276289501521494, guid: e057e4784ad6c4a4ca6257063e6175b8, type: 3}
  isBoss: 0
  woodSprite: {fileID: 21300000, guid: 3e3c278ca2d931e42a98190c344aa4fc, type: 3}
  blueWoodSprite: {fileID: 21300000, guid: 004ec6cf42e73e64ba2ed171aef53900, type: 3}
  WoodSplatParticle: {fileID: 198406193673109968, guid: 1dbad069903a8f1409b67d37776546ea, type: 3}
  BlueWoodSplatParticle: {fileID: 198406193673109968, guid: 49ce4d85358d1f647bde5628b9f90c53, type: 3}
  isRandomClockWise: 1
  hitedKnife: []
  woodHitSfx: {fileID: 8300000, guid: da1c8c0d45ee5a949a9b0fecd91c1bd8, type: 3}
  LasthitSfx: {fileID: 8300000, guid: c1c698f2fc83dc54e8dcf9f05deea9ff, type: 3}
--- !u!114 &189441685128457467
MonoBehaviour:
  m_ObjectHideFlags: 0
  m_CorrespondingSourceObject: {fileID: 0}
  m_PrefabInstance: {fileID: 0}
  m_PrefabAsset: {fileID: 0}
  m_GameObject: {fileID: 1156287589520152}
  m_Enabled: 1
  m_EditorHideFlags: 0
  m_Script: {fileID: 11500000, guid: 28605d8541888b74891c4b0100d565a0, type: 3}
  m_Name: 
  m_EditorClassIdentifier: 
  tag_gm: Wood
